{
  "project_info": {
    "project_number": "784617222588",
    "firebase_url": "https://salesc2-4f632.firebaseio.com",
    "project_id": "salesc2-4f632",
    "storage_bucket": "salesc2-4f632.appspot.com"
  },
  "client": [
    {
      "client_info": {
        "mobilesdk_app_id": "1:784617222588:android:c37d549f2b32759e13bbb9",
        "android_client_info": {
          "package_name": "com.salesc2"
        }
      },
      "oauth_client": [
        {
          "client_id": "784617222588-5hk1rk9rhuhmi2q8vqdqmehjjosk2rbo.apps.googleusercontent.com",
          "client_type": 1,
          "android_info": {
            "package_name": "com.salesc2",
            "certificate_hash": "879fe34df45897d05de91c7c0354486c9b72d59e"
          }
        },
        {
          "client_id": "784617222588-p2lggbqcd7oajsqal3sn40t28vb4j0p6.apps.googleusercontent.com",
          "client_type": 3
        }
      ],
      "api_key": [
        {
          "current_key": "AIzaSyDQ7fWqbrXBIl19yBmiTuNtmZAH3HFRTOI"
        }
      ],
      "services": {
        "appinvite_service": {
          "other_platform_oauth_client": [
            {
              "client_id": "784617222588-p2lggbqcd7oajsqal3sn40t28vb4j0p6.apps.googleusercontent.com",
              "client_type": 3
            }
          ]
        }
      }
    }
  ],
  "configuration_version": "1"
}